EESchema Schematic File Version 4
LIBS:projekt-cache
EELAYER 26 0
EELAYER END
$Descr A4 11693 8268
encoding utf-8
Sheet 1 1
Title "IoT thermometer"
Date "2019-02-08"
Rev "1"
Comp "Ondřej Budai"
Comment1 ""
Comment2 ""
Comment3 ""
Comment4 ""
$EndDescr
$Comp
L TPS63031:TPS63031 U1
U 1 1 5C39CCBA
P 3650 4500
F 0 "U1" H 3650 4500 50  0001 L BNN
F 1 "TPS63031" H 3650 4500 50  0001 L BNN
F 2 "10SON" H 3650 4500 50  0001 L BNN
F 3 "Texas Instruments" H 3650 4500 50  0001 L BNN
F 4 "High Efficient Single Inductor Buck-Boost Converter with 1-A Switches" H 3650 4500 50  0001 L BNN "Field4"
F 5 "None" H 3650 4500 50  0001 L BNN "Field5"
F 6 "None" H 3650 4500 50  0001 L BNN "Field6"
F 7 "Unavailable" H 3650 4500 50  0001 L BNN "Field7"
F 8 "TPS63031" H 3650 4500 50  0001 L BNN "Field8"
	1    3650 4500
	1    0    0    -1  
$EndComp
$Comp
L Device:L L1
U 1 1 5C39D1C6
P 2950 4300
F 0 "L1" V 3140 4300 50  0000 C CNN
F 1 "1.5uH" V 3049 4300 50  0000 C CNN
F 2 "" H 2950 4300 50  0001 C CNN
F 3 "" H 2950 4300 50  0001 C CNN
	1    2950 4300
	0    -1   -1   0   
$EndComp
$Comp
L 00_DogRatIan:IRLML6401 Q1
U 1 1 5C39D782
P 1850 4200
F 0 "Q1" V 2193 4200 50  0000 C CNN
F 1 "IRLML6401" V 2102 4200 50  0000 C CNN
F 2 "Package_TO_SOT_SMD:SOT-23" H 2050 4125 50  0001 L CIN
F 3 "" H 1850 4200 50  0001 L CNN
	1    1850 4200
	0    -1   -1   0   
$EndComp
$Comp
L power:GND #PWR01
U 1 1 5C39D9FE
P 2600 5900
F 0 "#PWR01" H 2600 5650 50  0001 C CNN
F 1 "GND" H 2605 5727 50  0000 C CNN
F 2 "" H 2600 5900 50  0001 C CNN
F 3 "" H 2600 5900 50  0001 C CNN
	1    2600 5900
	1    0    0    -1  
$EndComp
$Comp
L Device:C C2
U 1 1 5C39DAD3
P 2600 5150
F 0 "C2" H 2715 5196 50  0000 L CNN
F 1 "100nF" H 2715 5105 50  0000 L CNN
F 2 "" H 2638 5000 50  0001 C CNN
F 3 "" H 2600 5150 50  0001 C CNN
	1    2600 5150
	1    0    0    -1  
$EndComp
Wire Wire Line
	3250 5000 2600 5000
Wire Wire Line
	2600 5000 2600 4600
Wire Wire Line
	2600 4600 3250 4600
Connection ~ 2600 5000
Wire Wire Line
	2600 5300 2600 5700
Wire Wire Line
	3250 5200 3250 5300
Wire Wire Line
	3250 5300 2600 5300
Connection ~ 2600 5300
Wire Wire Line
	2800 4300 2800 4400
Wire Wire Line
	4550 3700 4550 3900
$Comp
L power:+3V3 #PWR02
U 1 1 5C39E322
P 4550 3700
F 0 "#PWR02" H 4550 3550 50  0001 C CNN
F 1 "+3V3" H 4565 3873 50  0000 C CNN
F 2 "" H 4550 3700 50  0001 C CNN
F 3 "" H 4550 3700 50  0001 C CNN
	1    4550 3700
	1    0    0    -1  
$EndComp
Wire Wire Line
	4550 4200 4550 5700
Wire Wire Line
	4550 5700 3250 5700
Connection ~ 2600 5700
Wire Wire Line
	2600 5700 2600 5900
Connection ~ 3250 5300
Wire Wire Line
	2800 4400 3250 4400
Wire Wire Line
	3250 4300 3100 4300
Wire Wire Line
	2200 5300 2600 5300
Connection ~ 2600 4600
Wire Wire Line
	3250 3900 2600 3900
Wire Wire Line
	2600 3900 2600 4600
Wire Wire Line
	2050 4100 2200 4100
Wire Wire Line
	3250 4800 2500 4800
Wire Wire Line
	2500 4800 2500 3700
Wire Wire Line
	2500 3700 4550 3700
Connection ~ 4550 3700
Wire Wire Line
	2200 4100 2200 5000
Connection ~ 2200 4100
Wire Wire Line
	2200 4100 3250 4100
$Comp
L Device:Battery_Cell BT1
U 1 1 5C3A1C22
P 1250 4750
F 0 "BT1" H 1368 4846 50  0000 L CNN
F 1 "Battery_Cell" H 1368 4755 50  0000 L CNN
F 2 "" V 1250 4810 50  0001 C CNN
F 3 "" V 1250 4810 50  0001 C CNN
	1    1250 4750
	1    0    0    -1  
$EndComp
Wire Wire Line
	1650 4100 1250 4100
Wire Wire Line
	1250 4100 1250 4550
Wire Wire Line
	1250 5700 1850 5700
$Comp
L Device:R R1
U 1 1 5C3A25D5
P 1850 5000
F 0 "R1" H 1920 5046 50  0000 L CNN
F 1 "10k" H 1920 4955 50  0000 L CNN
F 2 "" V 1780 5000 50  0001 C CNN
F 3 "" H 1850 5000 50  0001 C CNN
	1    1850 5000
	1    0    0    -1  
$EndComp
Wire Wire Line
	1850 4400 1850 4850
Wire Wire Line
	1850 5150 1850 5700
Connection ~ 1850 5700
Wire Wire Line
	1850 5700 2600 5700
$Comp
L RF_Module:ESP-WROOM-02 U2
U 1 1 5C3A3F5C
P 7400 2800
F 0 "U2" H 7400 3578 50  0000 C CNN
F 1 "ESP-WROOM-02" H 7400 3487 50  0000 C CNN
F 2 "RF_Module:ESP-WROOM-02" H 8000 2250 50  0001 C CNN
F 3 "" H 7450 4300 50  0001 C CNN
	1    7400 2800
	1    0    0    -1  
$EndComp
$Comp
L power:+3V3 #PWR03
U 1 1 5C3A645A
P 7400 1700
F 0 "#PWR03" H 7400 1550 50  0001 C CNN
F 1 "+3V3" H 7415 1873 50  0000 C CNN
F 2 "" H 7400 1700 50  0001 C CNN
F 3 "" H 7400 1700 50  0001 C CNN
	1    7400 1700
	1    0    0    -1  
$EndComp
$Comp
L Device:R R3
U 1 1 5C3A689D
P 6850 2000
F 0 "R3" H 6920 2046 50  0000 L CNN
F 1 "10k" H 6920 1955 50  0000 L CNN
F 2 "" V 6780 2000 50  0001 C CNN
F 3 "" H 6850 2000 50  0001 C CNN
	1    6850 2000
	1    0    0    -1  
$EndComp
$Comp
L Device:R R2
U 1 1 5C3A6A15
P 6600 2000
F 0 "R2" H 6670 2046 50  0000 L CNN
F 1 "10k" H 6670 1955 50  0000 L CNN
F 2 "" V 6530 2000 50  0001 C CNN
F 3 "" H 6600 2000 50  0001 C CNN
	1    6600 2000
	1    0    0    -1  
$EndComp
Wire Wire Line
	6850 2150 6850 2400
Wire Wire Line
	6850 2400 6900 2400
Wire Wire Line
	6900 2500 6600 2500
Wire Wire Line
	6600 2500 6600 2150
Wire Wire Line
	6850 1850 6850 1750
Wire Wire Line
	6850 1750 7400 1750
Wire Wire Line
	7400 1750 7400 1700
Wire Wire Line
	6850 1750 6600 1750
Wire Wire Line
	6600 1750 6600 1850
Connection ~ 6850 1750
$Comp
L Device:R R4
U 1 1 5C3A8DC3
P 8200 2000
F 0 "R4" H 8270 2046 50  0000 L CNN
F 1 "10k" H 8270 1955 50  0000 L CNN
F 2 "" V 8130 2000 50  0001 C CNN
F 3 "" H 8200 2000 50  0001 C CNN
	1    8200 2000
	1    0    0    -1  
$EndComp
Connection ~ 7400 1750
Wire Wire Line
	7400 1750 7400 2200
$Comp
L power:GND #PWR0101
U 1 1 5C3AD351
P 7400 3550
F 0 "#PWR0101" H 7400 3300 50  0001 C CNN
F 1 "GND" H 7405 3377 50  0000 C CNN
F 2 "" H 7400 3550 50  0001 C CNN
F 3 "" H 7400 3550 50  0001 C CNN
	1    7400 3550
	1    0    0    -1  
$EndComp
Wire Wire Line
	7400 3550 7400 3450
$Comp
L Device:R R5
U 1 1 5C3AE619
P 8700 2600
F 0 "R5" H 8770 2646 50  0000 L CNN
F 1 "1k" H 8770 2555 50  0000 L CNN
F 2 "" V 8630 2600 50  0001 C CNN
F 3 "" H 8700 2600 50  0001 C CNN
	1    8700 2600
	1    0    0    -1  
$EndComp
Wire Wire Line
	8700 2750 8700 3450
Wire Wire Line
	8700 3450 8300 3450
Connection ~ 7400 3450
Wire Wire Line
	7400 3450 7400 3400
$Comp
L Switch:SW_SPST SW1
U 1 1 5C3B06C7
P 8500 2400
F 0 "SW1" H 8500 2635 50  0000 C CNN
F 1 "SW_SPST" H 8500 2544 50  0000 C CNN
F 2 "" H 8500 2400 50  0001 C CNN
F 3 "" H 8500 2400 50  0001 C CNN
	1    8500 2400
	1    0    0    -1  
$EndComp
Wire Wire Line
	8700 2400 8700 2450
$Comp
L Connector:Conn_01x03_Male J1
U 1 1 5C3B352A
P 4900 2900
F 0 "J1" H 5006 3178 50  0000 C CNN
F 1 "Conn_01x03_Male" H 5006 3087 50  0000 C CNN
F 2 "" H 4900 2900 50  0001 C CNN
F 3 "" H 4900 2900 50  0001 C CNN
	1    4900 2900
	1    0    0    1   
$EndComp
$Comp
L Sensor_Temperature:DS18B20 U3
U 1 1 5C3B8B76
P 10350 2050
F 0 "U3" H 10121 2096 50  0000 R CNN
F 1 "DS18B20" H 10121 2005 50  0000 R CNN
F 2 "Package_TO_SOT_THT:TO-92_Inline" H 9350 1800 50  0001 C CNN
F 3 "" H 10200 2300 50  0001 C CNN
	1    10350 2050
	-1   0    0    -1  
$EndComp
$Comp
L Device:C C5
U 1 1 5C3C0036
P 6600 3250
F 0 "C5" H 6715 3296 50  0000 L CNN
F 1 "100n" H 6715 3205 50  0000 L CNN
F 2 "" H 6638 3100 50  0001 C CNN
F 3 "" H 6600 3250 50  0001 C CNN
	1    6600 3250
	1    0    0    -1  
$EndComp
$Comp
L Device:R R8
U 1 1 5C3C1073
P 8100 3100
F 0 "R8" V 7893 3100 50  0000 C CNN
F 1 "10k" V 7984 3100 50  0000 C CNN
F 2 "" V 8030 3100 50  0001 C CNN
F 3 "" H 8100 3100 50  0001 C CNN
	1    8100 3100
	0    1    1    0   
$EndComp
Wire Wire Line
	7950 3100 7900 3100
Wire Wire Line
	8250 3100 8300 3100
Wire Wire Line
	8300 3100 8300 3450
Connection ~ 8300 3450
Wire Wire Line
	8300 3450 7400 3450
$Comp
L Device:R R9
U 1 1 5C44A749
P 9900 1800
F 0 "R9" H 9970 1846 50  0000 L CNN
F 1 "4k7" H 9970 1755 50  0000 L CNN
F 2 "" V 9830 1800 50  0001 C CNN
F 3 "" H 9900 1800 50  0001 C CNN
	1    9900 1800
	1    0    0    -1  
$EndComp
Wire Wire Line
	8400 2800 8400 2600
Wire Wire Line
	8400 2600 7900 2600
Wire Wire Line
	1250 4850 1250 5700
Wire Wire Line
	2200 4100 2200 3700
$Comp
L power:+BATT #PWR04
U 1 1 5C45F172
P 2200 3700
F 0 "#PWR04" H 2200 3550 50  0001 C CNN
F 1 "+BATT" H 2215 3873 50  0000 C CNN
F 2 "" H 2200 3700 50  0001 C CNN
F 3 "" H 2200 3700 50  0001 C CNN
	1    2200 3700
	1    0    0    -1  
$EndComp
Wire Wire Line
	6600 2500 6600 3100
Connection ~ 6600 2500
Wire Wire Line
	6600 3400 6600 3450
Wire Wire Line
	6600 3450 7400 3450
$Comp
L Device:R R7
U 1 1 5C4652FE
P 5250 2150
F 0 "R7" H 5320 2196 50  0000 L CNN
F 1 "15k" H 5320 2105 50  0000 L CNN
F 2 "" V 5180 2150 50  0001 C CNN
F 3 "" H 5250 2150 50  0001 C CNN
	1    5250 2150
	1    0    0    -1  
$EndComp
$Comp
L Device:R R6
U 1 1 5C4653C9
P 5250 1850
F 0 "R6" H 5320 1896 50  0000 L CNN
F 1 "68k" H 5320 1805 50  0000 L CNN
F 2 "" V 5180 1850 50  0001 C CNN
F 3 "" H 5250 1850 50  0001 C CNN
	1    5250 1850
	1    0    0    -1  
$EndComp
Connection ~ 5250 2000
$Comp
L Device:C C4
U 1 1 5C4654C0
P 4950 2150
F 0 "C4" H 5065 2196 50  0000 L CNN
F 1 "1n" H 5065 2105 50  0000 L CNN
F 2 "" H 4988 2000 50  0001 C CNN
F 3 "" H 4950 2150 50  0001 C CNN
	1    4950 2150
	1    0    0    -1  
$EndComp
Wire Wire Line
	5250 2000 4950 2000
Wire Wire Line
	4950 2300 5250 2300
$Comp
L power:+BATT #PWR05
U 1 1 5C469894
P 5250 1700
F 0 "#PWR05" H 5250 1550 50  0001 C CNN
F 1 "+BATT" H 5265 1873 50  0000 C CNN
F 2 "" H 5250 1700 50  0001 C CNN
F 3 "" H 5250 1700 50  0001 C CNN
	1    5250 1700
	1    0    0    -1  
$EndComp
$Comp
L Sensor:DHT11 U4
U 1 1 5C46AB8B
P 10350 3600
F 0 "U4" H 10121 3646 50  0000 R CNN
F 1 "DHT11" H 10121 3555 50  0000 R CNN
F 2 "" H 10500 3850 50  0001 C CNN
F 3 "" H 10500 3850 50  0001 C CNN
	1    10350 3600
	-1   0    0    -1  
$EndComp
$Comp
L Device:R R10
U 1 1 5C474121
P 9900 3350
F 0 "R10" H 9970 3396 50  0000 L CNN
F 1 "10k" H 9970 3305 50  0000 L CNN
F 2 "" V 9830 3350 50  0001 C CNN
F 3 "" H 9900 3350 50  0001 C CNN
	1    9900 3350
	1    0    0    -1  
$EndComp
$Comp
L power:+3V3 #PWR09
U 1 1 5C4744AE
P 10350 1650
F 0 "#PWR09" H 10350 1500 50  0001 C CNN
F 1 "+3V3" H 10365 1823 50  0000 C CNN
F 2 "" H 10350 1650 50  0001 C CNN
F 3 "" H 10350 1650 50  0001 C CNN
	1    10350 1650
	1    0    0    -1  
$EndComp
Wire Wire Line
	10350 1650 10350 1750
Wire Wire Line
	10350 1650 9900 1650
Connection ~ 10350 1650
Wire Wire Line
	9900 1950 9900 2050
Wire Wire Line
	9900 2050 10050 2050
$Comp
L power:GND #PWR010
U 1 1 5C4794F3
P 10350 2400
F 0 "#PWR010" H 10350 2150 50  0001 C CNN
F 1 "GND" H 10355 2227 50  0000 C CNN
F 2 "" H 10350 2400 50  0001 C CNN
F 3 "" H 10350 2400 50  0001 C CNN
	1    10350 2400
	1    0    0    -1  
$EndComp
Wire Wire Line
	10350 2350 10350 2400
Wire Wire Line
	9900 2800 9900 2050
Connection ~ 9900 2050
Wire Wire Line
	7900 2700 8300 2700
Wire Wire Line
	8400 2800 9900 2800
Wire Wire Line
	9650 3600 9900 3600
Wire Wire Line
	9900 3500 9900 3600
Connection ~ 9900 3600
Wire Wire Line
	9900 3600 10050 3600
Wire Wire Line
	9900 3200 10450 3200
Wire Wire Line
	10450 3200 10450 3300
$Comp
L power:GND #PWR012
U 1 1 5C48B3C3
P 10450 3950
F 0 "#PWR012" H 10450 3700 50  0001 C CNN
F 1 "GND" H 10455 3777 50  0000 C CNN
F 2 "" H 10450 3950 50  0001 C CNN
F 3 "" H 10450 3950 50  0001 C CNN
	1    10450 3950
	1    0    0    -1  
$EndComp
$Comp
L power:+3V3 #PWR011
U 1 1 5C48B431
P 10450 3200
F 0 "#PWR011" H 10450 3050 50  0001 C CNN
F 1 "+3V3" H 10465 3373 50  0000 C CNN
F 2 "" H 10450 3200 50  0001 C CNN
F 3 "" H 10450 3200 50  0001 C CNN
	1    10450 3200
	1    0    0    -1  
$EndComp
Connection ~ 10450 3200
Wire Wire Line
	10450 3950 10450 3900
Wire Wire Line
	9650 2900 9650 3600
Wire Wire Line
	8300 2700 8300 2900
Wire Wire Line
	8300 2900 9650 2900
Wire Wire Line
	5550 2000 5250 2000
Wire Wire Line
	5550 2700 6900 2700
$Comp
L power:GND #PWR06
U 1 1 5C4A0167
P 5250 2300
F 0 "#PWR06" H 5250 2050 50  0001 C CNN
F 1 "GND" H 5255 2127 50  0000 C CNN
F 2 "" H 5250 2300 50  0001 C CNN
F 3 "" H 5250 2300 50  0001 C CNN
	1    5250 2300
	1    0    0    -1  
$EndComp
Connection ~ 5250 2300
Wire Wire Line
	5550 2000 5550 2700
Wire Wire Line
	5100 2900 6900 2900
Wire Wire Line
	5100 3000 6900 3000
Wire Wire Line
	5100 2800 5400 2800
Wire Wire Line
	5400 2800 5400 3100
$Comp
L power:GND #PWR07
U 1 1 5C4B3795
P 5400 3100
F 0 "#PWR07" H 5400 2850 50  0001 C CNN
F 1 "GND" H 5405 2927 50  0000 C CNN
F 2 "" H 5400 3100 50  0001 C CNN
F 3 "" H 5400 3100 50  0001 C CNN
	1    5400 3100
	1    0    0    -1  
$EndComp
$Comp
L Device:CP C6
U 1 1 5C4BA7CF
P 7550 2000
F 0 "C6" H 7668 2046 50  0000 L CNN
F 1 "470u" H 7668 1955 50  0000 L CNN
F 2 "" H 7588 1850 50  0001 C CNN
F 3 "" H 7550 2000 50  0001 C CNN
	1    7550 2000
	1    0    0    -1  
$EndComp
$Comp
L Device:C C1
U 1 1 5C4C4555
P 2200 5150
F 0 "C1" H 2315 5196 50  0000 L CNN
F 1 "47u" H 2315 5105 50  0000 L CNN
F 2 "" H 2238 5000 50  0001 C CNN
F 3 "" H 2200 5150 50  0001 C CNN
	1    2200 5150
	1    0    0    -1  
$EndComp
$Comp
L Device:C C3
U 1 1 5C4C476B
P 4550 4050
F 0 "C3" H 4665 4096 50  0000 L CNN
F 1 "47u" H 4665 4005 50  0000 L CNN
F 2 "" H 4588 3900 50  0001 C CNN
F 3 "" H 4550 4050 50  0001 C CNN
	1    4550 4050
	1    0    0    -1  
$EndComp
Connection ~ 4550 3900
Wire Wire Line
	8200 1850 8200 1750
Connection ~ 8200 2400
Wire Wire Line
	8200 2400 8300 2400
Wire Wire Line
	8200 2150 8200 2400
Wire Wire Line
	7900 2400 8200 2400
Wire Wire Line
	7400 1750 7550 1750
Wire Wire Line
	7550 1850 7550 1750
Connection ~ 7550 1750
Wire Wire Line
	7550 1750 7900 1750
$Comp
L Device:C C7
U 1 1 5C4D295A
P 7900 2000
F 0 "C7" H 8015 2046 50  0000 L CNN
F 1 "100n" H 8015 1955 50  0000 L CNN
F 2 "" H 7938 1850 50  0001 C CNN
F 3 "" H 7900 2000 50  0001 C CNN
	1    7900 2000
	1    0    0    -1  
$EndComp
Wire Wire Line
	7900 1850 7900 1750
Connection ~ 7900 1750
Wire Wire Line
	7900 1750 8200 1750
Wire Wire Line
	7550 2150 7900 2150
$Comp
L power:GND #PWR08
U 1 1 5C4D6B4B
P 7900 2150
F 0 "#PWR08" H 7900 1900 50  0001 C CNN
F 1 "GND" H 7905 1977 50  0000 C CNN
F 2 "" H 7900 2150 50  0001 C CNN
F 3 "" H 7900 2150 50  0001 C CNN
	1    7900 2150
	1    0    0    -1  
$EndComp
Connection ~ 7900 2150
Wire Wire Line
	3250 5500 3250 5700
Connection ~ 3250 5700
Wire Wire Line
	3250 5700 2600 5700
$EndSCHEMATC
